{ "compressionlevel":-1,
 "height":1,
 "infinite":false,
 "layers":[
        {
         "draworder":"topdown",
         "id":2,
         "name":"objetos",
         "objects":[
                {
                 "height":0,
                 "id":1,
                 "name":"player",
                 "properties":[
                        {
                         "name":"Energy",
                         "type":"string",
                         "value":"50"
                        }, 
                        {
                         "name":"Impulses",
                         "type":"string",
                         "value":"5"
                        }],
                 "rotation":0,
                 "type":"",
                 "visible":true,
                 "width":0,
                 "x":25.1859185918592,
                 "y":30.3581726593715
                }, 
                {
                 "height":0,
                 "id":2,
                 "name":"checkpoint",
                 "rotation":0,
                 "type":"",
                 "visible":true,
                 "width":0,
                 "x":286.58549012796,
                 "y":35.8935209310404
                }, 
                {
                 "height":50,
                 "id":3,
                 "name":"asteroid0",
                 "rotation":0,
                 "type":"",
                 "visible":true,
                 "width":50,
                 "x":67.3256325632563,
                 "y":13.4238029066064
                }, 
                {
                 "height":51.5,
                 "id":4,
                 "name":"asteroid0",
                 "properties":[
                        {
                         "name":"Vr",
                         "type":"string",
                         "value":"13"
                        }],
                 "rotation":0,
                 "type":"",
                 "visible":true,
                 "width":53.5,
                 "x":208.885212205431,
                 "y":119.228591280181
                }, 
                {
                 "height":24.8194372068786,
                 "id":5,
                 "name":"asteroid0",
                 "properties":[
                        {
                         "name":"Vr",
                         "type":"string",
                         "value":"60"
                        }],
                 "rotation":0,
                 "type":"",
                 "visible":true,
                 "width":84.2567598865149,
                 "x":57.7384488448847,
                 "y":174.724784320537
                }, 
                {
                 "height":21.8549302298651,
                 "id":6,
                 "name":"asteroid0",
                 "properties":[
                        {
                         "name":"Vr",
                         "type":"string",
                         "value":"-40"
                        }],
                 "rotation":0,
                 "type":"",
                 "visible":true,
                 "width":28.3016906953853,
                 "x":78.4899976839789,
                 "y":68.3730965201783
                }, 
                {
                 "height":50,
                 "id":7,
                 "name":"asteroid0",
                 "rotation":0,
                 "type":"",
                 "visible":true,
                 "width":53.3350703491402,
                 "x":80.5258814052458,
                 "y":95.3271069914886
                }, 
                {
                 "height":51.5,
                 "id":8,
                 "name":"asteroid0",
                 "properties":[
                        {
                         "name":"Vr",
                         "type":"string",
                         "value":"-23"
                        }],
                 "rotation":0,
                 "type":"",
                 "visible":true,
                 "width":53.5,
                 "x":158.34861920271,
                 "y":40.307395932488
                }, 
                {
                 "height":21.8549,
                 "id":9,
                 "name":"asteroid0",
                 "properties":[
                        {
                         "name":"Vr",
                         "type":"string",
                         "value":"-23"
                        }],
                 "rotation":0,
                 "type":"",
                 "visible":true,
                 "width":28.3017,
                 "x":229.539855836373,
                 "y":188.814987809044
                }],
         "opacity":1,
         "type":"objectgroup",
         "visible":true,
         "x":0,
         "y":0
        }],
 "nextlayerid":3,
 "nextobjectid":10,
 "orientation":"orthogonal",
 "renderorder":"left-down",
 "tiledversion":"1.7.2",
 "tileheight":220,
 "tilesets":[],
 "tilewidth":320,
 "type":"map",
 "version":"1.6",
 "width":1
}