{ "compressionlevel":-1,
 "height":1,
 "infinite":false,
 "layers":[
        {
         "draworder":"topdown",
         "id":2,
         "name":"objetos",
         "objects":[
                {
                 "height":0,
                 "id":1,
                 "name":"player",
                 "properties":[
                        {
                         "name":"Energy",
                         "type":"string",
                         "value":"60"
                        }, 
                        {
                         "name":"Impulses",
                         "type":"string",
                         "value":"8"
                        }],
                 "rotation":-90,
                 "type":"",
                 "visible":true,
                 "width":0,
                 "x":284.58027908054,
                 "y":33.322679636385
                }, 
                {
                 "height":0,
                 "id":2,
                 "name":"checkpoint",
                 "rotation":0,
                 "type":"",
                 "visible":true,
                 "width":0,
                 "x":27.9322563835329,
                 "y":194.494644201262
                }, 
                {
                 "height":23.3371837183719,
                 "id":5,
                 "name":"asteroid0",
                 "properties":[
                        {
                         "name":"Vr",
                         "type":"string",
                         "value":"70"
                        }],
                 "rotation":0,
                 "type":"",
                 "visible":true,
                 "width":25.7077470904984,
                 "x":112.581827919634,
                 "y":48.7332377974635
                }, 
                {
                 "height":48.906368015749,
                 "id":10,
                 "name":"asteroid0",
                 "properties":[
                        {
                         "name":"Vr",
                         "type":"string",
                         "value":"30"
                        }],
                 "rotation":0,
                 "type":"",
                 "visible":true,
                 "width":52.0176215042557,
                 "x":108.320411643796,
                 "y":80.9720953621678
                }, 
                {
                 "height":65.5817,
                 "id":11,
                 "name":"asteroid0",
                 "properties":[
                        {
                         "name":"Vr",
                         "type":"string",
                         "value":"-5"
                        }],
                 "rotation":0,
                 "type":"",
                 "visible":true,
                 "width":75.3631,
                 "x":189.103233741532,
                 "y":-1.66352674135835
                }, 
                {
                 "height":48.9064,
                 "id":12,
                 "name":"asteroid0",
                 "properties":[
                        {
                         "name":"Vr",
                         "type":"string",
                         "value":"34"
                        }],
                 "rotation":0,
                 "type":"",
                 "visible":true,
                 "width":52.0176,
                 "x":105.9117604771,
                 "y":173.427640715651
                }, 
                {
                 "height":31.1190633721267,
                 "id":13,
                 "name":"asteroid0",
                 "properties":[
                        {
                         "name":"Vr",
                         "type":"string",
                         "value":"-67"
                        }],
                 "rotation":0,
                 "type":"",
                 "visible":true,
                 "width":33.4896156968328,
                 "x":125.736808734294,
                 "y":135.445042455561
                }, 
                {
                 "height":33.3424436048868,
                 "id":14,
                 "name":"asteroid0",
                 "properties":[
                        {
                         "name":"Vr",
                         "type":"string",
                         "value":"25"
                        }],
                 "rotation":0,
                 "type":"",
                 "visible":true,
                 "width":42.7537,
                 "x":203.184553508772,
                 "y":76.1549029152915
                }, 
                {
                 "height":34.4541337212669,
                 "id":15,
                 "name":"asteroid0",
                 "properties":[
                        {
                         "name":"Vr",
                         "type":"string",
                         "value":"21"
                        }],
                 "rotation":0,
                 "type":"",
                 "visible":true,
                 "width":39.4186296508599,
                 "x":204.666806997279,
                 "y":115.43462036072
                }, 
                {
                 "height":23.7077,
                 "id":16,
                 "name":"asteroid0",
                 "properties":[
                        {
                         "name":"Vr",
                         "type":"string",
                         "value":"-70"
                        }],
                 "rotation":0,
                 "type":"",
                 "visible":true,
                 "width":42.7537,
                 "x":14.5680575618088,
                 "y":18.3472581466042
                }, 
                {
                 "height":48.9064,
                 "id":17,
                 "name":"asteroid0",
                 "properties":[
                        {
                         "name":"Vr",
                         "type":"string",
                         "value":"-50"
                        }],
                 "rotation":0,
                 "type":"",
                 "visible":true,
                 "width":52.0176,
                 "x":14.0116209339355,
                 "y":63.1852930316716
                }, 
                {
                 "height":45.9416011638006,
                 "id":18,
                 "name":"asteroid0",
                 "properties":[
                        {
                         "name":"Vr",
                         "type":"string",
                         "value":"-67"
                        }],
                 "rotation":0,
                 "type":"",
                 "visible":true,
                 "width":47.2004604655202,
                 "x":27.723127910949,
                 "y":116.546066287418
                }],
         "opacity":1,
         "type":"objectgroup",
         "visible":true,
         "x":0,
         "y":0
        }],
 "nextlayerid":3,
 "nextobjectid":19,
 "orientation":"orthogonal",
 "renderorder":"left-down",
 "tiledversion":"1.7.2",
 "tileheight":220,
 "tilesets":[],
 "tilewidth":320,
 "type":"map",
 "version":"1.6",
 "width":1
}