{ "compressionlevel":-1,
 "height":1,
 "infinite":false,
 "layers":[
        {
         "draworder":"topdown",
         "id":2,
         "name":"objetos",
         "objects":[
                {
                 "height":0,
                 "id":1,
                 "name":"player",
                 "properties":[
                        {
                         "name":"Energy",
                         "type":"string",
                         "value":"100"
                        }, 
                        {
                         "name":"Impulses",
                         "type":"string",
                         "value":"5"
                        }],
                 "rotation":90,
                 "type":"",
                 "visible":true,
                 "width":0,
                 "x":155.671303599598,
                 "y":187.666666666667
                }, 
                {
                 "height":0,
                 "id":2,
                 "name":"checkpoint",
                 "rotation":0,
                 "type":"",
                 "visible":true,
                 "width":0,
                 "x":155.78183081466,
                 "y":32.9091687456428
                }, 
                {
                 "height":22.5,
                 "id":10,
                 "name":"asteroid0",
                 "rotation":0,
                 "type":"",
                 "visible":true,
                 "width":22.5,
                 "x":268.75,
                 "y":21.4166666666667
                }, 
                {
                 "height":22.5,
                 "id":11,
                 "name":"asteroid0",
                 "rotation":0,
                 "type":"",
                 "visible":true,
                 "width":22.5,
                 "x":249.416666666667,
                 "y":162.083333333333
                }, 
                {
                 "height":22.5,
                 "id":13,
                 "name":"asteroid0",
                 "rotation":0,
                 "type":"",
                 "visible":true,
                 "width":22.5,
                 "x":52.0833333333333,
                 "y":160.75
                }, 
                {
                 "height":22.5,
                 "id":14,
                 "name":"asteroid0",
                 "rotation":0,
                 "type":"",
                 "visible":true,
                 "width":22.5,
                 "x":272.083333333333,
                 "y":96.0833333333333
                }, 
                {
                 "height":22.5,
                 "id":15,
                 "name":"asteroid0",
                 "rotation":0,
                 "type":"",
                 "visible":true,
                 "width":22.5,
                 "x":29.4166666666667,
                 "y":50.75
                }, 
                {
                 "height":68.3333,
                 "id":17,
                 "name":"asteroid0",
                 "properties":[
                        {
                         "name":"Vr",
                         "type":"string",
                         "value":"-50"
                        }],
                 "rotation":0,
                 "type":"",
                 "visible":true,
                 "width":99.8333666666667,
                 "x":106.249983333333,
                 "y":63.6666833333333
                }],
         "opacity":1,
         "type":"objectgroup",
         "visible":true,
         "x":0,
         "y":0
        }],
 "nextlayerid":3,
 "nextobjectid":18,
 "orientation":"orthogonal",
 "renderorder":"left-down",
 "tiledversion":"1.7.2",
 "tileheight":220,
 "tilesets":[],
 "tilewidth":320,
 "type":"map",
 "version":"1.6",
 "width":1
}