{ "compressionlevel":-1,
 "height":1,
 "infinite":false,
 "layers":[
        {
         "draworder":"topdown",
         "id":2,
         "name":"objetos",
         "objects":[
                {
                 "height":0,
                 "id":1,
                 "name":"player",
                 "properties":[
                        {
                         "name":"Energy",
                         "type":"string",
                         "value":"100"
                        }, 
                        {
                         "name":"Impulses",
                         "type":"string",
                         "value":"5"
                        }],
                 "rotation":0,
                 "type":"",
                 "visible":true,
                 "width":0,
                 "x":166,
                 "y":196
                }, 
                {
                 "height":0,
                 "id":2,
                 "name":"checkpoint",
                 "rotation":0,
                 "type":"",
                 "visible":true,
                 "width":0,
                 "x":160,
                 "y":38
                }, 
                {
                 "height":51.5,
                 "id":4,
                 "name":"asteroid0",
                 "properties":[
                        {
                         "name":"Vr",
                         "type":"string",
                         "value":"-30"
                        }],
                 "rotation":0,
                 "type":"",
                 "visible":true,
                 "width":77.5,
                 "x":125,
                 "y":75
                }],
         "opacity":1,
         "type":"objectgroup",
         "visible":true,
         "x":0,
         "y":0
        }],
 "nextlayerid":3,
 "nextobjectid":5,
 "orientation":"orthogonal",
 "renderorder":"left-down",
 "tiledversion":"1.7.2",
 "tileheight":220,
 "tilesets":[],
 "tilewidth":320,
 "type":"map",
 "version":"1.6",
 "width":1
}