{ "compressionlevel":-1,
 "height":1,
 "infinite":false,
 "layers":[
        {
         "draworder":"topdown",
         "id":2,
         "name":"objetos",
         "objects":[
                {
                 "height":0,
                 "id":1,
                 "name":"player",
                 "properties":[
                        {
                         "name":"Energy",
                         "type":"string",
                         "value":"100"
                        }, 
                        {
                         "name":"Impulses",
                         "type":"string",
                         "value":"7"
                        }],
                 "rotation":180,
                 "type":"",
                 "visible":true,
                 "width":0,
                 "x":256.333333333334,
                 "y":186.666666666666
                }, 
                {
                 "height":0,
                 "id":2,
                 "name":"checkpoint",
                 "rotation":0,
                 "type":"",
                 "visible":true,
                 "width":0,
                 "x":94.28183081466,
                 "y":113.728591280181
                }, 
                {
                 "height":26,
                 "id":4,
                 "name":"asteroid0",
                 "properties":[
                        {
                         "name":"Vr",
                         "type":"string",
                         "value":"0"
                        }],
                 "rotation":0,
                 "type":"",
                 "visible":true,
                 "width":24,
                 "x":210.5,
                 "y":93.5
                }, 
                {
                 "height":33.5,
                 "id":7,
                 "name":"asteroid0",
                 "properties":[
                        {
                         "name":"Vr",
                         "type":"string",
                         "value":"-30"
                        }],
                 "rotation":0,
                 "type":"",
                 "visible":true,
                 "width":33,
                 "x":128.25,
                 "y":69.25
                }, 
                {
                 "height":33.5,
                 "id":8,
                 "name":"asteroid0",
                 "properties":[
                        {
                         "name":"Vr",
                         "type":"string",
                         "value":"-30"
                        }],
                 "rotation":0,
                 "type":"",
                 "visible":true,
                 "width":33,
                 "x":45,
                 "y":45.25
                }, 
                {
                 "height":33.5,
                 "id":9,
                 "name":"asteroid0",
                 "properties":[
                        {
                         "name":"Vr",
                         "type":"string",
                         "value":"30"
                        }],
                 "rotation":0,
                 "type":"",
                 "visible":true,
                 "width":33,
                 "x":87.5,
                 "y":33.75
                }, 
                {
                 "height":33.5,
                 "id":10,
                 "name":"asteroid0",
                 "properties":[
                        {
                         "name":"Vr",
                         "type":"string",
                         "value":"30"
                        }],
                 "rotation":0,
                 "type":"",
                 "visible":true,
                 "width":33,
                 "x":127,
                 "y":121.25
                }, 
                {
                 "height":33.5,
                 "id":11,
                 "name":"asteroid0",
                 "properties":[
                        {
                         "name":"Vr",
                         "type":"string",
                         "value":"-30"
                        }],
                 "rotation":0,
                 "type":"",
                 "visible":true,
                 "width":33,
                 "x":85.5,
                 "y":156.75
                }, 
                {
                 "height":33.5,
                 "id":12,
                 "name":"asteroid0",
                 "properties":[
                        {
                         "name":"Vr",
                         "type":"string",
                         "value":"30"
                        }],
                 "rotation":0,
                 "type":"",
                 "visible":true,
                 "width":33,
                 "x":42,
                 "y":138.75
                }, 
                {
                 "height":33.5,
                 "id":13,
                 "name":"asteroid0",
                 "properties":[
                        {
                         "name":"Vr",
                         "type":"string",
                         "value":"-30"
                        }],
                 "rotation":0,
                 "type":"",
                 "visible":true,
                 "width":33,
                 "x":14.5,
                 "y":90.75
                }, 
                {
                 "height":26,
                 "id":14,
                 "name":"asteroid0",
                 "properties":[
                        {
                         "name":"Vr",
                         "type":"string",
                         "value":"0"
                        }],
                 "rotation":0,
                 "type":"",
                 "visible":true,
                 "width":24,
                 "x":154,
                 "y":182
                }, 
                {
                 "height":26,
                 "id":15,
                 "name":"asteroid0",
                 "properties":[
                        {
                         "name":"Vr",
                         "type":"string",
                         "value":"0"
                        }],
                 "rotation":0,
                 "type":"",
                 "visible":true,
                 "width":24,
                 "x":250.5,
                 "y":125.5
                }],
         "opacity":1,
         "type":"objectgroup",
         "visible":true,
         "x":0,
         "y":0
        }],
 "nextlayerid":3,
 "nextobjectid":16,
 "orientation":"orthogonal",
 "renderorder":"left-down",
 "tiledversion":"1.7.2",
 "tileheight":220,
 "tilesets":[],
 "tilewidth":320,
 "type":"map",
 "version":"1.6",
 "width":1
}